{
  "posts": [
    {
      "id": 1,
      "title": "json-server",
      "author": "typicode"
    }
  ],
  "comments": [
    {
      "id": 1,
      "body": "some comment",
      "postId": 1
    }
  ],
  "profile": {
    "name": "Simone"
  },
  "valutazioni": [
    {
      "idPrestazione": 2,
      "votoPrestazione": 3,
      "dataPrestazione": "20/06/2019 16:45 PM",
      "id": 1
    },
    {
      "idPrestazione": 8,
      "votoPrestazione": 2,
      "dataPrestazione": "20/06/2019 17:15 PM",
      "id": 2
    },
    {
      "idPrestazione": 2,
      "votoPrestazione": 3,
      "dataPrestazione": "20/06/2019 17:35 PM",
      "id": 3
    },
    {
      "idPrestazione": 10,
      "votoPrestazione": 3,
      "dataPrestazione": "20/06/2019 17:47 PM",
      "id": 4
    }
  ]
}