[
  {
    "id":1,
    "titolo":"Cardiologia",
    "descrizione":"Medicina dello sport"
  },
  {
    "id":2,
    "titolo":"Radiologia",
    "descrizione":"Centro di radiologia"
  },
  {
    "id":3,
    "titolo":"Ortopedia",
    "descrizione":"Servizio di ortopedia"
  },
  {
    "id":4,
    "titolo":"Osteoporosi",
    "descrizione":"Centro di osteoroposi"
  },
  {
    "id":5,
    "titolo":"Enterologia",
    "descrizione":"Servizio di gastroenterologia ed endoscopia digestiva"
  },
  {
    "id":6,
    "titolo":"Otorino",
    "descrizione":"Servizio medico di otorinolaringoiatria"
  },
  {
    "id":7,
    "titolo":"Oculista",
    "descrizione":"Servizio medico di Oculista"
  },
  {
    "id":8,
    "titolo":"Estetica",
    "descrizione":"Servizio medico di Dermatologia e Medicina Estetica"
  },
  {
    "id":9,
    "titolo":"Allergologia",
    "descrizione":"Servizio medico di Allergologia"
  },
  {
    "id":10,
    "titolo":"Altro0",
    "descrizione":"Medicina dello sport"
  },
  {
    "id":11,
    "titolo":"Altro1",
    "descrizione":"Centro di radiologia"
  },
  {
    "id":12,
    "titolo":"Altro2",
    "descrizione":"Servizio di ortopedia"
  },
  {
    "id":13,
    "titolo":"Altro3",
    "descrizione":"Centro di osteoroposi"
  },
  {
    "id":14,
    "titolo":"Altro4",
    "descrizione":"Servizio di gastroenterologia ed endoscopia digestiva"
  },
  {
    "id":15,
    "titolo":"Altro5",
    "descrizione":"Servizio medico di otorinolaringoiatria"
  },
  {
    "id":16,
    "titolo":"Altro6",
    "descrizione":"Servizio medico di Oculista"
  },
  {
    "id":17,
    "titolo":"Altro7",
    "descrizione":"Servizio medico di Dermatologia e Medicina Estetica"
  },
  {
    "id":18,
    "titolo":"Altro8",
    "descrizione":"Servizio medico di Allergologia"
  },
  {
    "id":19,
    "titolo":"Altro9",
    "descrizione":"Medicina dello sport"
  },
  {
    "id":20,
    "titolo":"Altro10",
    "descrizione":"Centro di radiologia"
  },
  {
    "id":21,
    "titolo":"Altro11",
    "descrizione":"Servizio di ortopedia"
  },
  {
    "id":22,
    "titolo":"Altro12",
    "descrizione":"Centro di osteoroposi"
  },
  {
    "id":23,
    "titolo":"Altro13",
    "descrizione":"Servizio di gastroenterologia ed endoscopia digestiva"
  },
  {
    "id":24,
    "titolo":"Altro14",
    "descrizione":"Servizio medico di otorinolaringoiatria"
  },
  {
    "id":25,
    "titolo":"Altro15",
    "descrizione":"Servizio medico di otorinolaringoiatria"
  },
  {
    "id":26,
    "titolo":"Altro16",
    "descrizione":"Servizio medico di otorinolaringoiatria"
  },
  {
    "id":27,
    "titolo":"Altro17",
    "descrizione":"Servizio medico di otorinolaringoiatria"
  },
  {
    "id":28,
    "titolo":"Altro18",
    "descrizione":"Servizio medico di otorinolaringoiatria"
  },
  {
    "id":29,
    "titolo":"Altro19",
    "descrizione":"Servizio medico di otorinolaringoiatria"
  },
  {
    "id":30,
    "titolo":"Altro20",
    "descrizione":"Servizio medico di otorinolaringoiatria"
  },
  {
    "id":31,
    "titolo":"Altro21",
    "descrizione":"Servizio medico di otorinolaringoiatria"
  }

]
